<?xml version="1.0" encoding="UTF-8" standalone="no"?>
<!-- Created with Inkscape (http://www.inkscape.org/) -->

<svg
   xmlns:dc="http://purl.org/dc/elements/1.1/"
   xmlns:cc="http://creativecommons.org/ns#"
   xmlns:rdf="http://www.w3.org/1999/02/22-rdf-syntax-ns#"
   xmlns:svg="http://www.w3.org/2000/svg"
   xmlns="http://www.w3.org/2000/svg"
   xmlns:sodipodi="http://sodipodi.sourceforge.net/DTD/sodipodi-0.dtd"
   xmlns:inkscape="http://www.inkscape.org/namespaces/inkscape"
   width="259.112"
   height="150.95215"
   viewBox="0 0 68.556715 39.939424"
   version="1.1"
   id="svg8"
   inkscape:version="0.92.3 (unknown)"
   sodipodi:docname="logo-icon.svg"
   inkscape:export-filename="/home/cilo/Desktop/zapi/logo.png"
   inkscape:export-xdpi="96"
   inkscape:export-ydpi="96">
  <defs
     id="defs2" />
  <sodipodi:namedview
     id="base"
     pagecolor="#ffffff"
     bordercolor="#ffffff"
     borderopacity="1"
     inkscape:pageopacity="0.0"
     inkscape:pageshadow="2"
     inkscape:zoom="1"
     inkscape:cx="188.8312"
     inkscape:cy="60.090714"
     inkscape:document-units="mm"
     inkscape:current-layer="layer1"
     showgrid="false"
     inkscape:pagecheckerboard="false"
     showborder="true"
     units="px"
     inkscape:snap-text-baseline="false"
     inkscape:window-width="1301"
     inkscape:window-height="744"
     inkscape:window-x="65"
     inkscape:window-y="24"
     inkscape:window-maximized="1" />
  <metadata
     id="metadata5">
    <rdf:RDF>
      <cc:Work
         rdf:about="">
        <dc:format>image/svg+xml</dc:format>
        <dc:type
           rdf:resource="http://purl.org/dc/dcmitype/StillImage" />
        <dc:title></dc:title>
      </cc:Work>
    </rdf:RDF>
  </metadata>
  <g
     inkscape:label="Layer 1"
     inkscape:groupmode="layer"
     id="layer1"
     transform="translate(-133.84209,-63.961131)">
    <g
       id="g1262"
       transform="translate(0,-0.52916667)">
      <text
         xml:space="preserve"
         style="font-style:normal;font-weight:normal;font-size:54.78471375px;line-height:125%;font-family:sans-serif;letter-spacing:0px;word-spacing:0px;fill:#292ec1;fill-opacity:1;stroke:none;stroke-width:1.36961794px;stroke-linecap:butt;stroke-linejoin:miter;stroke-opacity:1"
         x="135.93721"
         y="80.234489"
         id="text1052"><tspan
           sodipodi:role="line"
           id="tspan1050"
           x="135.93721"
           y="80.234489"
           style="font-style:normal;font-variant:normal;font-weight:900;font-stretch:normal;font-family:Lato;-inkscape-font-specification:'Lato Heavy';fill:#292ec1;fill-opacity:1;stroke-width:1.36961794px">z</tspan></text>
      <rect
         ry="2.7349393"
         y="73.974556"
         x="147.84079"
         height="6.2512889"
         width="14.825306"
         id="rect1054"
         style="fill:#292ec1;fill-opacity:1;stroke:#ffffff;stroke-width:0.156169;stroke-opacity:0" />
      <rect
         style="fill:#292ec1;fill-opacity:1;stroke:#ffffff;stroke-width:0.15221117;stroke-opacity:0"
         id="rect1056"
         width="14.083385"
         height="6.2512889"
         x="136.03487"
         y="51.866402"
         ry="2.7349393" />
    </g>
    <path
       style="fill:#292ec1;fill-opacity:1;stroke:#ffffff;stroke-width:0.92154044;stroke-opacity:0"
       d="M -14.023438 -63.103516 L -14.023438 76.974609 L 126.02344 76.974609 L 126.02344 -63.103516 L -14.023438 -63.103516 z M -6.0878906 -56.132812 L 119.06641 -56.132812 L 119.06641 69.019531 L -6.0878906 69.019531 L -6.0878906 -56.132812 z "
       transform="matrix(0.26458333,0,0,0.26458333,133.84209,63.961131)"
       id="rect1264"
       inkscape:export-xdpi="96"
       inkscape:export-ydpi="96" />
  </g>
</svg>
